Unit 2 Project
…
#Q3 The resulting data frame has 8 columns.

penguins_selected <- penguins_clean %>%
  select(species, island, sex, where(is.numeric))
ncol(penguins_selected)

## [1] 8

#Q4

penguins_clean %>%
  select(starts_with("bill"))

## # A tibble: 333 × 2
##    bill_length_mm bill_depth_mm
##             <dbl>         <dbl>
##  1           39.1          18.7
##  2           39.5          17.4
##  3           40.3          18  
##  4           36.7          19.3
##  5           39.3          20.6
##  6           38.9          17.8
##  7           39.2          19.6
##  8           41.1          17.6
##  9           38.6          21.2
## 10           34.6          21.1
## # ℹ 323 more rows

penguins_clean %>%
  select(ends_with("_mm"))

## # A tibble: 333 × 3
##    bill_length_mm bill_depth_mm flipper_length_mm
##             <dbl>         <dbl>             <int>
##  1           39.1          18.7               181
##  2           39.5          17.4               186
##  3           40.3          18                 195
##  4           36.7          19.3               193
##  5           39.3          20.6               190
##  6           38.9          17.8               181
##  7           39.2          19.6               195
##  8           41.1          17.6               182
##  9           38.6          21.2               191
## 10           34.6          21.1               198
## # ℹ 323 more rows

penguins_clean %>%
  select(matches("^(bill|flipper)"))

## # A tibble: 333 × 3
##    bill_length_mm bill_depth_mm flipper_length_mm
##             <dbl>         <dbl>             <int>
##  1           39.1          18.7               181
##  2           39.5          17.4               186
##  3           40.3          18                 195
##  4           36.7          19.3               193
##  5           39.3          20.6               190
##  6           38.9          17.8               181
##  7           39.2          19.6               195
##  8           41.1          17.6               182
##  9           38.6          21.2               191
## 10           34.6          21.1               198
## # ℹ 323 more rows
…
#Q6

penguins_clean %>%
  mutate(
    bill_length = 
    case_when(
      bill_length_mm < 40 ~ "short",
      bill_length_mm < 50 ~ "medium",
      bill_length_mm >= 50 ~ "long")
  )

## # A tibble: 333 × 9
##    species island    bill_length_mm bill_depth_mm flipper_length_mm body_mass_g
##    <fct>   <fct>              <dbl>         <dbl>             <int>       <int>
##  1 Adelie  Torgersen           39.1          18.7               181        3750
##  2 Adelie  Torgersen           39.5          17.4               186        3800
##  3 Adelie  Torgersen           40.3          18                 195        3250
##  4 Adelie  Torgersen           36.7          19.3               193        3450
##  5 Adelie  Torgersen           39.3          20.6               190        3650
##  6 Adelie  Torgersen           38.9          17.8               181        3625
##  7 Adelie  Torgersen           39.2          19.6               195        4675
##  8 Adelie  Torgersen           41.1          17.6               182        3200
##  9 Adelie  Torgersen           38.6          21.2               191        3800
## 10 Adelie  Torgersen           34.6          21.1               198        4400
## # ℹ 323 more rows
## # ℹ 3 more variables: sex <fct>, year <int>, bill_length <chr>
…
